<svg xmlns="http://www.w3.org/2000/svg" width="9" height="14" viewBox="0 0 9 14">
  <defs>
    <style>
      .cls-1 {
        font-size: 24px;
        fill: #222;
        font-family: FontAwesome;
      }
    </style>
  </defs>
  <text id="_" data-name="" class="cls-1" x="0.247" y="14.848"></text>
</svg>
